﻿game	27084
town	ravenwing,mathgenius64	21472,21264
town	jmo16mla	19927
town	phoenicks,felledor	20272,21262
town	JasonWazza,Fropome,HauntedCorpse	19535,21137,21012
town	jeremylu	21299
town	alexcellent	20590
town	marcmann2	21211
scum,cop	startransmission	10309
scum	hallia	21263