﻿game	27306
town	niccage	20674
town	remembrance,borno	20731,21287
town	bert,David Jones	18833,21296
town	edosurist,BlazeJP,Pirate Mollie	19900,21427,19804
town	mrbungle	20667
town,doctor	chkflip,FLLHawk	14709,20325
town,cop	gene1991	21281
scum	leviathan93	20220
scum,cop	nachomamma8	11658